Sentiment Analysis Project
…
08 02 2021

About

The aim of this project is to build a sentiment analysis model which will allow us to categorize words based on their sentiments, that is whether they are positive, negative and also the magnitude of it.

Before we start

We will use the dataset of sentiments from the tidytext package that comprises of sentiment lexicons. We will make use of the bing lexicons (classifies the sentiment into a binary category of negative or positive) to extract the sentiments out of our data.

library(tidytext)
get_sentiments("bing")

## # A tibble: 6,786 x 2
##    word        sentiment
##    <chr>       <chr>    
##  1 2-faces     negative 
##  2 abnormal    negative 
##  3 abolish     negative 
##  4 abominable  negative 
##  5 abominably  negative 
##  6 abominate   negative 
##  7 abomination negative 
##  8 abort       negative 
##  9 aborted     negative 
## 10 aborts      negative 
## # ... with 6,776 more rows
…
Now each row contains a single word. We will now make use of the bing lexicon to and implement filter() over the words that correspond to joy. We will use the book Sense and Sensibility and derive its words to implement out sentiment analysis model.

positive_senti <- get_sentiments("bing") %>%
 filter(sentiment == "positive")

tidy_data %>%
 filter(book == "Emma") %>%
 semi_join(positive_senti) %>%
 count(word, sort = TRUE)

## Joining, by = "word"

## # A tibble: 668 x 2
##    word         n
##    <chr>    <int>
##  1 well       401
##  2 good       359
##  3 great      264
##  4 like       200
##  5 better     173
##  6 enough     129
##  7 happy      125
##  8 love       117
##  9 pleasure   115
## 10 right       92
## # ... with 658 more rows
…
